…
I copied the authors column into a plaintext file, and manually created a comma-separated list of just the first name of each other, to match the data format which the gender package required. (I took the first word before a space in each name, to reflect how a future first-name-grabber algorithm would work, even when this meant choosing things which were clearly not first names --- one of my core questions is how the gender package will handle those kinds of exceptions.) The resulting list of names was saved as ECCO-1789-sample-firstnames.csv. Trying to paste in this list for the names finally helped me understand what is meant by a “character vector” in R. It’s basically an array of strings. You have to make the character vector before you can run gender() on it. Sample code:

names = c("john", "madison") # creates a character vector called “names” by ‘combining (c-ing) two strings

gender(names, method = "demo", years = 1985) # guesses gender for both of those names

Once I had gotten something to produce guesses for more than one name, I wanted to try using a method other than “demo.” This sent me down a spiral of trying to install genderdata, and trying to install devtools to install genderdata. Finally I got everything installed and able to run!

If a command is run requesting a name-year-method combination for which the package has no data, it simply returns an empty “tibble.” The following three sets of results illustrate the limits and possibilities of napp and ipums data:



\> **gender(ECCOnames, method = "ipums", years = 1789) - earliest year possible with ipums**

\# A tibble: 25 x 6

name      proportion\_male proportion\_female gender year\_min year\_max

\<chr\>               \<dbl\>             \<dbl\> \<chr\>     \<dbl\>    \<dbl\>

1 Andrew              1                 0     male       1789     1789

2 Ann                 0                 1     female     1789     1789

3 Benjamin            1                 0     male       1789     1789

4 Charles             1                 0     male       1789     1789

5 Charles             1                 0     male       1789     1789

6 Charles             1                 0     male       1789     1789

7 Charlotte           0                 1     female     1789     1789

8 Edward              1                 0     male       1789     1789

9 Francis             0.464             0.536 female     1789     1789

10 James               1                 0     male       1789     1789

\# ... with 15 more rows
…
